Abundances
…
# top phyla
rarefied_ps %>% 
  tax_agg("phylum") %>% 
  tax_transform("compositional") %>%
  psmelt() %>% 
  group_by(OTU) %>% 
  summarise(median_RA = median(Abundance)*100) %>% 
  arrange(desc(median_RA))

## # A tibble: 98 × 2
##    OTU                     median_RA
##    <chr>                       <dbl>
##  1 Bacillota                  31.0  
##  2 Actinomycetota             23.7  
##  3 Pseudomonadota             20.7  
##  4 Bacteroidota                8.94 
##  5 Streptophyta                3.62 
##  6 Thermodesulfobacteriota     1.33 
##  7 Methanobacteriota           0.626
##  8 Planctomycetota             0.507
##  9 Myxococcota                 0.485
## 10 Verrucomicrobiota           0.431
## # ℹ 88 more rows
…
